{
    "swagger": "2.0",
    "info": {
        "description": "A simple blog rest api.",
        "title": "Blogo",
        "termsOfService": "http://rmsubekti.github.io",
        "contact": {
            "name": "API Support",
            "url": "http://rmsubekti.github.io",
            "email": "rmsubekti2011@gmail.com"
        },
        "license": {
            "name": "Apache 2.0",
            "url": "http://www.apache.org/licenses/LICENSE-2.0.html"
        },
        "version": "1.0"
    },
    "basePath": "/api",
    "paths": {
        "/login": {
            "post": {
                "description": "Create new session\nemail value can be email or username",
                "produces": [
                    "application/json"
                ],
                "tags": [
                    "account"
                ],
                "summary": "Login",
                "parameters": [
                    {
                        "description": " Body payload message/rfc822",
                        "name": "request",
                        "in": "body",
                        "required": true,
                        "schema": {
                            "type": "string",
                            "example": "{\n\t\"email\": \"superuser\",\n\t\"password\": \"5uper@Secret\"\n}"
                        }
                    }
                ],
                "responses": {
                    "200": {
                        "description": "OK",
                        "schema": {
                            "$ref": "#/definitions/port.UserInfo"
                        }
                    },
                    "400": {
                        "description": "Bad Request",
                        "schema": {
                            "type": "string"
                        }
                    },
                    "401": {
                        "description": "Unauthorized",
                        "schema": {
                            "type": "string"
                        }
                    },
                    "500": {
                        "description": "Internal Server Error",
                        "schema": {
                            "type": "string"
                        }
                    }
                }
            }
        },
        "/posts": {
            "get": {
                "security": [
                    {
                        "Bearer": []
                    }
                ],
                "description": "admin only can see draft post",
                "produces": [
                    "application/json"
                ],
                "tags": [
                    "blogpost"
                ],
                "summary": "List Blog Post",
                "parameters": [
                    {
                        "type": "string",
                        "description": "search by tag",
                        "name": "tag",
                        "in": "query"
                    },
                    {
                        "type": "string",
                        "description": "filter by status (draft/published) only admin see draft post",
                        "name": "status",
                        "in": "query"
                    },
                    {
                        "type": "integer",
                        "description": "limit query",
                        "name": "limit",
                        "in": "query"
                    },
                    {
                        "type": "integer",
                        "description": "page",
                        "name": "page",
                        "in": "query"
                    },
                    {
                        "type": "integer",
                        "description": "order asc/desc",
                        "name": "order",
                        "in": "query"
                    }
                ],
                "responses": {
                    "200": {
                        "description": "OK",
                        "schema": {
                            "$ref": "#/definitions/port.PostListResponse"
                        }
                    },
                    "400": {
                        "description": "Bad Request",
                        "schema": {
                            "type": "string"
                        }
                    },
                    "401": {
                        "description": "Unauthorized",
                        "schema": {
                            "type": "string"
                        }
                    },
                    "500": {
                        "description": "Internal Server Error",
                        "schema": {
                            "type": "string"
                        }
                    }
                }
            },
            "post": {
                "security": [
                    {
                        "Bearer": []
                    }
                ],
                "description": "Create BlogPost",
                "consumes": [
                    "application/json"
                ],
                "produces": [
                    "application/json"
                ],
                "tags": [
                    "blogpost"
                ],
                "summary": "Create BlogPost",
                "parameters": [
                    {
                        "description": "Body payload",
                        "name": "request",
                        "in": "body",
                        "required": true,
                        "schema": {
                            "$ref": "#/definitions/port.BlogPostCreate"
                        }
                    }
                ],
                "responses": {
                    "200": {
                        "description": "OK",
                        "schema": {
                            "type": "string"
                        }
                    },
                    "400": {
                        "description": "Bad Request",
                        "schema": {
                            "type": "string"
                        }
                    },
                    "401": {
                        "description": "Unauthorized",
                        "schema": {
                            "type": "string"
                        }
                    },
                    "500": {
                        "description": "Internal Server Error",
                        "schema": {
                            "type": "string"
                        }
                    }
                }
            }
        },
        "/posts/{id}": {
            "get": {
                "security": [
                    {
                        "Bearer": []
                    }
                ],
                "description": "View a BlogPost",
                "produces": [
                    "application/json"
                ],
                "tags": [
                    "blogpost"
                ],
                "summary": "View a BlogPost",
                "parameters": [
                    {
                        "type": "string",
                        "description": "BlogPost ID",
                        "name": "id",
                        "in": "path",
                        "required": true
                    }
                ],
                "responses": {
                    "200": {
                        "description": "OK",
                        "schema": {
                            "$ref": "#/definitions/port.BlogPostView"
                        }
                    },
                    "400": {
                        "description": "Bad Request",
                        "schema": {
                            "type": "string"
                        }
                    },
                    "401": {
                        "description": "Unauthorized",
                        "schema": {
                            "type": "string"
                        }
                    },
                    "500": {
                        "description": "Internal Server Error",
                        "schema": {
                            "type": "string"
                        }
                    }
                }
            },
            "put": {
                "security": [
                    {
                        "Bearer": []
                    }
                ],
                "description": "Update a BlogPost",
                "consumes": [
                    "application/json"
                ],
                "produces": [
                    "application/json"
                ],
                "tags": [
                    "blogpost"
                ],
                "summary": "Update a BlogPost",
                "parameters": [
                    {
                        "type": "string",
                        "description": "BlogPost ID",
                        "name": "id",
                        "in": "path",
                        "required": true
                    },
                    {
                        "description": "Body payload",
                        "name": "request",
                        "in": "body",
                        "required": true,
                        "schema": {
                            "$ref": "#/definitions/port.BlogPostUpdate"
                        }
                    }
                ],
                "responses": {
                    "200": {
                        "description": "OK",
                        "schema": {
                            "type": "string"
                        }
                    },
                    "400": {
                        "description": "Bad Request",
                        "schema": {
                            "type": "string"
                        }
                    },
                    "401": {
                        "description": "Unauthorized",
                        "schema": {
                            "type": "string"
                        }
                    },
                    "500": {
                        "description": "Internal Server Error",
                        "schema": {
                            "type": "string"
                        }
                    }
                }
            },
            "delete": {
                "security": [
                    {
                        "Bearer": []
                    }
                ],
                "description": "Delete a BlogPost",
                "produces": [
                    "application/json"
                ],
                "tags": [
                    "blogpost"
                ],
                "summary": "Delete a BlogPost",
                "parameters": [
                    {
                        "type": "string",
                        "description": "BlogPost ID",
                        "name": "id",
                        "in": "path",
                        "required": true
                    }
                ],
                "responses": {
                    "200": {
                        "description": "OK",
                        "schema": {
                            "type": "string"
                        }
                    },
                    "400": {
                        "description": "Bad Request",
                        "schema": {
                            "type": "string"
                        }
                    },
                    "401": {
                        "description": "Unauthorized",
                        "schema": {
                            "type": "string"
                        }
                    },
                    "500": {
                        "description": "Internal Server Error",
                        "schema": {
                            "type": "string"
                        }
                    }
                }
            }
        },
        "/posts/{id}/{status}": {
            "patch": {
                "security": [
                    {
                        "Bearer": []
                    }
                ],
                "description": "Publish a BlogPost",
                "produces": [
                    "application/json"
                ],
                "tags": [
                    "blogpost"
                ],
                "summary": "Publish a BlogPost",
                "parameters": [
                    {
                        "type": "string",
                        "description": "BlogPost ID",
                        "name": "id",
                        "in": "path",
                        "required": true
                    },
                    {
                        "type": "string",
                        "description": "status to set",
                        "name": "status",
                        "in": "path",
                        "required": true
                    }
                ],
                "responses": {
                    "200": {
                        "description": "OK",
                        "schema": {
                            "type": "string"
                        }
                    },
                    "400": {
                        "description": "Bad Request",
                        "schema": {
                            "type": "string"
                        }
                    },
                    "401": {
                        "description": "Unauthorized",
                        "schema": {
                            "type": "string"
                        }
                    },
                    "500": {
                        "description": "Internal Server Error",
                        "schema": {
                            "type": "string"
                        }
                    }
                }
            }
        },
        "/register": {
            "post": {
                "description": "Usename cannot be changed after account is created",
                "produces": [
                    "application/json"
                ],
                "tags": [
                    "account"
                ],
                "summary": "Register a new account",
                "parameters": [
                    {
                        "description": "Body payload",
                        "name": "request",
                        "in": "body",
                        "required": true,
                        "schema": {
                            "$ref": "#/definitions/port.UserRegister"
                        }
                    }
                ],
                "responses": {
                    "200": {
                        "description": "OK",
                        "schema": {
                            "type": "string"
                        }
                    },
                    "400": {
                        "description": "Bad Request",
                        "schema": {
                            "type": "string"
                        }
                    },
                    "401": {
                        "description": "Unauthorized",
                        "schema": {
                            "type": "string"
                        }
                    },
                    "500": {
                        "description": "Internal Server Error",
                        "schema": {
                            "type": "string"
                        }
                    }
                }
            }
        },
        "/tags": {
            "get": {
                "description": "List tags",
                "produces": [
                    "application/json"
                ],
                "tags": [
                    "tags"
                ],
                "summary": "List tags",
                "parameters": [
                    {
                        "type": "string",
                        "description": "query search",
                        "name": "search",
                        "in": "query"
                    },
                    {
                        "type": "integer",
                        "description": "result limit",
                        "name": "limit",
                        "in": "query"
                    }
                ],
                "responses": {
                    "200": {
                        "description": "OK",
                        "schema": {
                            "type": "array",
                            "items": {
                                "$ref": "#/definitions/domain.Tag"
                            }
                        }
                    },
                    "400": {
                        "description": "Bad Request",
                        "schema": {
                            "type": "string"
                        }
                    },
                    "401": {
                        "description": "Unauthorized",
                        "schema": {
                            "type": "string"
                        }
                    },
                    "500": {
                        "description": "Internal Server Error",
                        "schema": {
                            "type": "string"
                        }
                    }
                }
            }
        }
    },
    "definitions": {
        "domain.Tag": {
            "type": "object",
            "properties": {
                "id": {
                    "type": "string"
                },
                "label": {
                    "type": "string"
                }
            }
        },
        "port.BlogPostCreate": {
            "type": "object",
            "properties": {
                "content": {
                    "type": "string"
                },
                "tags": {
                    "type": "array",
                    "items": {
                        "type": "string"
                    }
                },
                "title": {
                    "type": "string"
                },
                "uid": {
                    "type": "string"
                }
            }
        },
        "port.BlogPostListItem": {
            "type": "object",
            "properties": {
                "author": {
                    "$ref": "#/definitions/port.UserInfo"
                },
                "headline": {
                    "type": "string"
                },
                "id": {
                    "type": "string"
                },
                "tags": {
                    "type": "array",
                    "items": {
                        "$ref": "#/definitions/domain.Tag"
                    }
                },
                "title": {
                    "type": "string"
                }
            }
        },
        "port.BlogPostUpdate": {
            "type": "object",
            "properties": {
                "content": {
                    "type": "string"
                },
                "id": {
                    "type": "string"
                },
                "tags": {
                    "type": "array",
                    "items": {
                        "type": "string"
                    }
                },
                "title": {
                    "type": "string"
                },
                "uid": {
                    "type": "string"
                }
            }
        },
        "port.BlogPostView": {
            "type": "object",
            "properties": {
                "author": {
                    "$ref": "#/definitions/port.UserInfo"
                },
                "headline": {
                    "type": "string"
                },
                "id": {
                    "type": "string"
                },
                "tags": {
                    "type": "array",
                    "items": {
                        "$ref": "#/definitions/domain.Tag"
                    }
                },
                "title": {
                    "type": "string"
                }
            }
        },
        "port.PostListResponse": {
            "type": "object",
            "properties": {
                "limit": {
                    "type": "integer"
                },
                "order": {
                    "type": "string"
                },
                "page": {
                    "type": "integer"
                },
                "rows": {
                    "type": "array",
                    "items": {
                        "$ref": "#/definitions/port.BlogPostListItem"
                    }
                },
                "search": {
                    "type": "string"
                },
                "status": {
                    "type": "string"
                },
                "tag": {
                    "type": "string"
                },
                "total_page": {
                    "type": "integer"
                },
                "total_rows": {
                    "type": "integer"
                }
            }
        },
        "port.UserInfo": {
            "type": "object",
            "properties": {
                "full_name": {
                    "type": "string"
                },
                "id": {
                    "type": "string"
                },
                "role": {
                    "type": "integer"
                },
                "user_name": {
                    "type": "string"
                }
            }
        },
        "port.UserRegister": {
            "type": "object",
            "properties": {
                "email": {
                    "type": "string"
                },
                "full_name": {
                    "type": "string"
                },
                "password": {
                    "type": "string"
                },
                "user_name": {
                    "type": "string"
                }
            }
        }
    },
    "securityDefinitions": {
        "Bearer": {
            "description": "Type \"Bearer\" followed by a space and JWT token.",
            "type": "apiKey",
            "name": "Authorization",
            "in": "header"
        }
    }
}